4 Session 4: Putting it all together – WEHI R Course
…
ℹ Use `spec()` to retrieve the full column specification for this data.
ℹ Specify the column types or set `show_col_types = FALSE` to quiet this message.

NoteHow do we read in data again?

Note that we used read_csv() for the mouse dosage data and read_tsv() for the expression data. We chose these functions to match the file extensions of the two datasets, as described when we first learned about reading in data in session 1 (see Section 1.8.2).

Before we go further, let’s take a moment to explore the genes dataset, as it’s new in this session.

genes

# A tibble: 343 × 11
   group        Th_rep1 Th_rep2 Th_rep3 Prlh_rep1 Prlh_rep2 Prlh_rep3 Hprt1_rep1
   <chr>          <dbl>   <dbl>   <dbl>     <dbl>     <dbl>     <dbl>      <dbl>
 1 grp_treatme…   3239.   5964.   4123.      225.      359.      314.       858.
 2 grp_treatme…   2665.   4867.   4240.      253.      460.      358.       709.
 3 grp_treatme…   1536.   2501.   2054.      367.      552.      448.       975.
 4 grp_treatme…   2732.   4800.   3981.      258.      411.      339.       725.
 5 grp_treatme…   2384.   3460.   3115.      347.      651.      491.       896.
 6 grp_treatme…   2972.   4880.   4028.      303.      456.      377.       865.
 7 grp_treatme…   1936.   3666.   2964.      302.      441.      355.       625.
 8 grp_treatme…   2801.   4977.   3795.      246.      424.      321.       856.
 9 grp_treatme…   3239.   5198.   3930.      385.      654.      508.       623.
10 grp_treatme…   2665.   3820.   2958.      230.      391.      301.       740.
# ℹ 333 more rows
# ℹ 3 more variables: Hprt1_rep2 <dbl>, Hprt1_rep3 <dbl>, id_num <dbl>
…
This has transformed our data into a contingency table, with NA used to indicate where no data corresponding data exists for the specific sex and mouse_strain combination. It allows us to see that we have a decent number of mice for each strain/sex, giving us confidence that we can address whether or not these variables affect the relationship between drug dosage and weight loss.

4.3.1.2 Pivot longer

Although wide format data is easy to read, it is difficult to use tidyverse functions on because of how variables are stored in column names rather than in columns of their own. For example, in the contingency table we created above, the different strains of the mice are now in the names of the columns. Another example of this is in our new genes dataset, where the gene names and replicates are both encoded as column names:

genes

# A tibble: 343 × 11
   group        Th_rep1 Th_rep2 Th_rep3 Prlh_rep1 Prlh_rep2 Prlh_rep3 Hprt1_rep1
   <chr>          <dbl>   <dbl>   <dbl>     <dbl>     <dbl>     <dbl>      <dbl>
 1 grp_treatme…   3239.   5964.   4123.      225.      359.      314.       858.
 2 grp_treatme…   2665.   4867.   4240.      253.      460.      358.       709.
 3 grp_treatme…   1536.   2501.   2054.      367.      552.      448.       975.
 4 grp_treatme…   2732.   4800.   3981.      258.      411.      339.       725.
 5 grp_treatme…   2384.   3460.   3115.      347.      651.      491.       896.
 6 grp_treatme…   2972.   4880.   4028.      303.      456.      377.       865.
 7 grp_treatme…   1936.   3666.   2964.      302.      441.      355.       625.
 8 grp_treatme…   2801.   4977.   3795.      246.      424.      321.       856.
 9 grp_treatme…   3239.   5198.   3930.      385.      654.      508.       623.
10 grp_treatme…   2665.   3820.   2958.      230.      391.      301.       740.
# ℹ 333 more rows
# ℹ 3 more variables: Hprt1_rep2 <dbl>, Hprt1_rep3 <dbl>, id_num <dbl>
…
values_to: the name of a new column that will contain the values from the original columns.

In our case, here’s what the code would look like:

# save the long format data as a variable so we can use it later
genes_long <- genes %>%
  pivot_longer(
    cols = contains("_rep"),
    names_to = "measurement",
    values_to = "expression"
  )

genes_long

# A tibble: 3,087 × 4
   group         id_num measurement expression
   <chr>          <dbl> <chr>            <dbl>
 1 grp_treatment      1 Th_rep1          3239.
 2 grp_treatment      1 Th_rep2          5964.
 3 grp_treatment      1 Th_rep3          4123.
 4 grp_treatment      1 Prlh_rep1         225.
 5 grp_treatment      1 Prlh_rep2         359.
 6 grp_treatment      1 Prlh_rep3         314.
 7 grp_treatment      1 Hprt1_rep1        858.
 8 grp_treatment      1 Hprt1_rep2       1292.
 9 grp_treatment      1 Hprt1_rep3        988.
10 grp_treatment      2 Th_rep1          2665.
# ℹ 3,077 more rows
…
 ✔Calculates the median tail length for each unique combination of mouse_strain and sex in the dosage data frame, then pivots into a wide format where there is a column for each sex.

 ✗Calculates the median tail length for each unique combination of mouse_strain and sex in the dosage data frame, then pivots into a wide format where there is a column for each mouse strain.

 ✗It just gives an error

2. I have run the following code to create a new column in the dosage data frame that gives the weight of the mice at the end of the experiment.

dosage %>%
  # add a column for the weight at the end of the experiment
  mutate(final_weight_g = initial_weight_g - weight_lost_g) %>%
  # select the relevant columns only
  select(id_num, initial_weight_g, final_weight_g)

# A tibble: 344 × 3
   id_num initial_weight_g final_weight_g
    <dbl>            <dbl>          <dbl>
 1      1             39.1           35.4
 2      2             39.5           35.7
 3      3             40.3           37.0
 4      4             NA             NA  
 5      5             36.7           33.2
 6      6             39.3           35.6
 7      7             38.9           35.3
 8      8             39.2           34.5
 9      9             34.1           30.6
10     10             42             37.8
# ℹ 334 more rows
…
into, which is a vector of the new column names that the data will be placed into

sep, which is the character that separates the two pieces of data

genes_tidy <- genes_long %>%
  separate(
      measurement, 
      into = c("gene", "replicate"), 
      sep = "_")

We can now see that the gene name and replicate are contained within their own columns, officially making the data tidy!

genes_tidy

# A tibble: 3,087 × 5
   group         id_num gene  replicate expression
   <chr>          <dbl> <chr> <chr>          <dbl>
 1 grp_treatment      1 Th    rep1           3239.
 2 grp_treatment      1 Th    rep2           5964.
 3 grp_treatment      1 Th    rep3           4123.
 4 grp_treatment      1 Prlh  rep1            225.
 5 grp_treatment      1 Prlh  rep2            359.
 6 grp_treatment      1 Prlh  rep3            314.
 7 grp_treatment      1 Hprt1 rep1            858.
 8 grp_treatment      1 Hprt1 rep2           1292.
 9 grp_treatment      1 Hprt1 rep3            988.
10 grp_treatment      2 Th    rep1           2665.
# ℹ 3,077 more rows
…
WarningBeware multiple matches!

If the values from the left data frame match to multiple rows of the column in the right data frame, the left_join() will duplicate the data from the left data frame for each match to the right. This can cause issues with downstream summarisation if not carefully considered.

Using this knowledge, let’s try joining our dosage and genes_tidy data frames based on their shared column, id_num (an ID number uniquely assigned to each mouse):

# let's save the result of this as a variable
combined_data <- left_join(
    genes_tidy, # the left data frame
    dosage, # the right data frame
    by = "id_num") # name of the column to join by

combined_data

# A tibble: 3,087 × 13
   group         id_num gene  replicate.x expression mouse_strain cage_number
   <chr>          <dbl> <chr> <chr>            <dbl> <chr>        <chr>      
 1 grp_treatment      1 Th    rep1             3239. CD-1         1A         
 2 grp_treatment      1 Th    rep2             5964. CD-1         1A         
 3 grp_treatment      1 Th    rep3             4123. CD-1         1A         
 4 grp_treatment      1 Prlh  rep1              225. CD-1         1A         
 5 grp_treatment      1 Prlh  rep2              359. CD-1         1A         
 6 grp_treatment      1 Prlh  rep3              314. CD-1         1A         
 7 grp_treatment      1 Hprt1 rep1              858. CD-1         1A         
 8 grp_treatment      1 Hprt1 rep2             1292. CD-1         1A         
 9 grp_treatment      1 Hprt1 rep3              988. CD-1         1A         
10 grp_treatment      2 Th    rep1             2665. CD-1         1A         
# ℹ 3,077 more rows
# ℹ 6 more variables: weight_lost_g <dbl>, replicate.y <chr>, sex <chr>,
#   drug_dose_g <dbl>, tail_length_mm <dbl>, initial_weight_g <dbl>

We now have the gene expression information and the dosage/metadata for each mouse all together in a single data frame. Notice how all of the 3,087 rows in the genes_tidy data frame are present in the combined_data, and the relevant information from the dosage data frame has been joined where available.

NoteTwo replicate columns?

One other thing you might have noticed is that there are now two replicate columns: replicate.x and replicate.y. This is because both genes_tidy and dosage each contained their own replicate column, but we only told left_join() to match up our data by id_num. Since you can’t have two columns with the same name, R has added the .x and .y to differentiate them. If you want R to use more informative names than just .x and .y , you can use the suffix argument:

left_join(
    genes_tidy, # the left data frame
    dosage, # the right data frame
    by = "id_num", # name of the column to join by
    suffix = c("_genes", "_dosage"))

# A tibble: 3,087 × 13
   group        id_num gene  replicate_genes expression mouse_strain cage_number
   <chr>         <dbl> <chr> <chr>                <dbl> <chr>        <chr>      
 1 grp_treatme…      1 Th    rep1                 3239. CD-1         1A         
 2 grp_treatme…      1 Th    rep2                 5964. CD-1         1A         
 3 grp_treatme…      1 Th    rep3                 4123. CD-1         1A         
 4 grp_treatme…      1 Prlh  rep1                  225. CD-1         1A         
 5 grp_treatme…      1 Prlh  rep2                  359. CD-1         1A         
 6 grp_treatme…      1 Prlh  rep3                  314. CD-1         1A         
 7 grp_treatme…      1 Hprt1 rep1                  858. CD-1         1A         
 8 grp_treatme…      1 Hprt1 rep2                 1292. CD-1         1A         
 9 grp_treatme…      1 Hprt1 rep3                  988. CD-1         1A         
10 grp_treatme…      2 Th    rep1                 2665. CD-1         1A         
# ℹ 3,077 more rows
# ℹ 6 more variables: weight_lost_g <dbl>, replicate_dosage <chr>, sex <chr>,
#   drug_dose_g <dbl>, tail_length_mm <dbl>, initial_weight_g <dbl>
…
As an example, we’ll rename the id_num column in the dosage data frame to mouse_id and repeat the join to genes_tidy:

# rename id_num to mouse_id
renamed_dosage <- dosage %>%
  # we can use the rename() function to rename a column
  rename(mouse_id = id_num)

# now perform the left join
left_join(
  genes_tidy, # left data frame 
  renamed_dosage, # right data frame
  # join by the id_num column in genes_tidy, which is equivalent to the mouse_id column in renamed_dosage
  by = join_by(id_num == mouse_id)) 

# A tibble: 3,087 × 13
   group         id_num gene  replicate.x expression mouse_strain cage_number
   <chr>          <dbl> <chr> <chr>            <dbl> <chr>        <chr>      
 1 grp_treatment      1 Th    rep1             3239. CD-1         1A         
 2 grp_treatment      1 Th    rep2             5964. CD-1         1A         
 3 grp_treatment      1 Th    rep3             4123. CD-1         1A         
 4 grp_treatment      1 Prlh  rep1              225. CD-1         1A         
 5 grp_treatment      1 Prlh  rep2              359. CD-1         1A         
 6 grp_treatment      1 Prlh  rep3              314. CD-1         1A         
 7 grp_treatment      1 Hprt1 rep1              858. CD-1         1A         
 8 grp_treatment      1 Hprt1 rep2             1292. CD-1         1A         
 9 grp_treatment      1 Hprt1 rep3              988. CD-1         1A         
10 grp_treatment      2 Th    rep1             2665. CD-1         1A         
# ℹ 3,077 more rows
# ℹ 6 more variables: weight_lost_g <dbl>, replicate.y <chr>, sex <chr>,
#   drug_dose_g <dbl>, tail_length_mm <dbl>, initial_weight_g <dbl>
…
We might think that the drug is more effective on Black 6 mice, because they lost more weight, but our scatterplot above shows it’s more likely to be due to their higher dosage.

Always try to look at all the variables you have, because you never know what associations you might find!

4.6 Question 2: The effect of mousezempic on gene expression

Our second research question was about the effect of mousezempic on the expression of the TH and PRLH genes. To answer this question, we can use the genes_tidy dataset that we prepared in Section 4.3, by pivoting the genes dataset to be longer and separating the measurement column so each variable is contained within its own column.

Let’s take a look at the genes_tidy data to remind ourselves of the information it contains. You might like to use the View() function, or just type the name of the data like so:

genes_tidy

# A tibble: 3,087 × 5
   group         id_num gene  replicate expression
   <chr>          <dbl> <chr> <chr>          <dbl>
 1 grp_treatment      1 Th    rep1           3239.
 2 grp_treatment      1 Th    rep2           5964.
 3 grp_treatment      1 Th    rep3           4123.
 4 grp_treatment      1 Prlh  rep1            225.
 5 grp_treatment      1 Prlh  rep2            359.
 6 grp_treatment      1 Prlh  rep3            314.
 7 grp_treatment      1 Hprt1 rep1            858.
 8 grp_treatment      1 Hprt1 rep2           1292.
 9 grp_treatment      1 Hprt1 rep3            988.
10 grp_treatment      2 Th    rep1           2665.
# ℹ 3,077 more rows
…
The full list of functions can be found in the stringr package documentation.

NoteUsing stringr functions on a data frame

Remember from session 2 that when we use the pipe operator %>%, it passes whatever precedes it into the function after it as the first argument. This means that the functions we use within a chain of pipes on a data frame should (generally) have a data frame as their input, and return a data frame as their output.

But stringr functions operate on character vectors (their first argument is string, as shown above), so how can we use them on our data frames? The answer is to wrap it in the mutate() function from the dplyr package, which allows us to either edit an exisiting column or create a new one based on our string manipulation.

For example, let’s say we want to change the replicate column in our genes_tidy data frame to read ‘Replicate 1’, ‘Replicate 2’, etc instead of ‘rep1’, ‘rep2’. We would do this by using the str_replace() function inside the mutate() function like so:

genes_tidy %>%
  mutate(replicate = str_replace(replicate, "rep", "Replicate "))

# A tibble: 3,087 × 5
   group         id_num gene  replicate   expression
   <chr>          <dbl> <chr> <chr>            <dbl>
 1 grp_treatment      1 Th    Replicate 1      3239.
 2 grp_treatment      1 Th    Replicate 2      5964.
 3 grp_treatment      1 Th    Replicate 3      4123.
 4 grp_treatment      1 Prlh  Replicate 1       225.
 5 grp_treatment      1 Prlh  Replicate 2       359.
 6 grp_treatment      1 Prlh  Replicate 3       314.
 7 grp_treatment      1 Hprt1 Replicate 1       858.
 8 grp_treatment      1 Hprt1 Replicate 2      1292.
 9 grp_treatment      1 Hprt1 Replicate 3       988.
10 grp_treatment      2 Th    Replicate 1      2665.
# ℹ 3,077 more rows
…
