1 Session 1: Introduction to R – WEHI R Course
…
What happens if we use the wrong delimiter?

As an example, let’s try reading in our comma-separated file with read_tsv(), which is specifically for tab-separated files:

read_tsv("~/Desktop/R_course/data/mousezempic_dosage_data.csv")

Rows: 344 Columns: 1
── Column specification ────────────────────────────────────────────────────────
Delimiter: "\t"
chr (1): mouse_strain,cage_number,weight_lost_g,replicate,sex,drug_dose_g,ta...

ℹ Use `spec()` to retrieve the full column specification for this data.
ℹ Specify the column types or set `show_col_types = FALSE` to quiet this message.

# A tibble: 344 × 1
   mouse_strain,cage_number,weight_lost_g,replicate,sex,drug_dose_g,tail_lengt…¹
   <chr>                                                                        
 1 CD-1,1A,3.75,rep1,male,0.00181,18.7,39.1,1                                   
 2 CD-1,1A,3.8,rep1,female,0.0018600000000000001,17.4,39.5,2                    
 3 CD-1,1A,3.25,rep1,female,0.00195,18,40.3,3                                   
 4 CD-1,1A,NA,rep1,NA,NA,NA,NA,4                                                
 5 CD-1,1A,3.45,rep1,female,0.00192999999999999,19.3,36.7,5                     
 6 CD-1,1A,3.65,rep1,male,0.0019,20.6,39.3,6                                    
 7 CD-1,1A,3.625,rep1,female,0.00181,17.8,38.9,7                                
 8 CD-1,1A,4.675,rep1,male,0.00195,19.6,39.2,8                                  
 9 CD-1,1A,3.475,rep1,NA,0.00192999999999999,18.1,34.1,9                        
10 CD-1,1A,4.25,rep1,NA,0.0019,20.2,42,10                                       
# ℹ 334 more rows
# ℹ abbreviated name:
#   ¹​`mouse_strain,cage_number,weight_lost_g,replicate,sex,drug_dose_g,tail_length_mm,initial_weight_g,id_num`
…
Another conveninent way to get the path of your file (so long as you are working within an R project) is to use a feature called ‘tab completion’. Within R projects, R can discover any files sitting in, or downstream of the project directory. So, assuming our mousezempic_dosage_data.csv file is located within a folder called ‘data’, if we start typing read_delim("data/mouse then press TabTab, R will auto-complete the full file path and close the quotes and bracket for us!

Now, let’s take a look at the output of read_delim():

Rows: 344 Columns: 9
── Column specification ────────────────────────────────────────────────────────
Delimiter: ","
chr (4): mouse_strain, cage_number, replicate, sex
dbl (5): weight_lost_g, drug_dose_g, tail_length_mm, initial_weight_g, id_num

ℹ Use `spec()` to retrieve the full column specification for this data.
ℹ Specify the column types or set `show_col_types = FALSE` to quiet this message.

# A tibble: 344 × 9
   mouse_strain cage_number weight_lost_g replicate sex    drug_dose_g
   <chr>        <chr>               <dbl> <chr>     <chr>        <dbl>
 1 CD-1         1A                   3.75 rep1      male       0.00181
 2 CD-1         1A                   3.8  rep1      female     0.00186
 3 CD-1         1A                   3.25 rep1      female     0.00195
 4 CD-1         1A                  NA    rep1      <NA>      NA      
 5 CD-1         1A                   3.45 rep1      female     0.00193
 6 CD-1         1A                   3.65 rep1      male       0.0019 
 7 CD-1         1A                   3.62 rep1      female     0.00181
 8 CD-1         1A                   4.68 rep1      male       0.00195
 9 CD-1         1A                   3.48 rep1      <NA>       0.00193
10 CD-1         1A                   4.25 rep1      <NA>       0.0019 
# ℹ 334 more rows
# ℹ 3 more variables: tail_length_mm <dbl>, initial_weight_g <dbl>,
#   id_num <dbl>
…
But when we print a tibble, only a small preview is shown, which is much easier to read:

# print iris as a tibble
as_tibble(iris)

# A tibble: 150 × 5
   Sepal.Length Sepal.Width Petal.Length Petal.Width Species
          <dbl>       <dbl>        <dbl>       <dbl> <fct>  
 1          5.1         3.5          1.4         0.2 setosa 
 2          4.9         3            1.4         0.2 setosa 
 3          4.7         3.2          1.3         0.2 setosa 
 4          4.6         3.1          1.5         0.2 setosa 
 5          5           3.6          1.4         0.2 setosa 
 6          5.4         3.9          1.7         0.4 setosa 
 7          4.6         3.4          1.4         0.3 setosa 
 8          5           3.4          1.5         0.2 setosa 
 9          4.4         2.9          1.4         0.2 setosa 
10          4.9         3.1          1.5         0.1 setosa 
# ℹ 140 more rows
…
