2 Session 2: Working with data – WEHI R Course
…
Rows: 344 Columns: 9
── Column specification ────────────────────────────────────────────────────────
Delimiter: ","
chr (4): mouse_strain, cage_number, replicate, sex
dbl (5): weight_lost_g, drug_dose_g, tail_length_mm, initial_weight_g, id_num

ℹ Use `spec()` to retrieve the full column specification for this data.
ℹ Specify the column types or set `show_col_types = FALSE` to quiet this message.

Before we start, let’s use what we learned in the previous session to take a look at mousezempic_dosage_data:

# it's a tibble, so prints nicely
mousezempic_dosage_data

# A tibble: 344 × 9
   mouse_strain cage_number weight_lost_g replicate sex    drug_dose_g
   <chr>        <chr>               <dbl> <chr>     <chr>        <dbl>
 1 CD-1         1A                   3.75 rep1      male       0.00181
 2 CD-1         1A                   3.8  rep1      female     0.00186
 3 CD-1         1A                   3.25 rep1      female     0.00195
 4 CD-1         1A                  NA    rep1      <NA>      NA      
 5 CD-1         1A                   3.45 rep1      female     0.00193
 6 CD-1         1A                   3.65 rep1      male       0.0019 
 7 CD-1         1A                   3.62 rep1      female     0.00181
 8 CD-1         1A                   4.68 rep1      male       0.00195
 9 CD-1         1A                   3.48 rep1      <NA>       0.00193
10 CD-1         1A                   4.25 rep1      <NA>       0.0019 
# ℹ 334 more rows
# ℹ 3 more variables: tail_length_mm <dbl>, initial_weight_g <dbl>,
#   id_num <dbl>
…
Arrange orders rows by their values in one or more columns

By default, arrange() sorts in ascending order (smallest values first). For example, let’s sort the mousezempic_dosage_data data frame by the weight_lost_g column:

mousezempic_dosage_data %>%
  arrange(weight_lost_g)

# A tibble: 344 × 9
   mouse_strain cage_number weight_lost_g replicate sex    drug_dose_g
   <chr>        <chr>               <dbl> <chr>     <chr>        <dbl>
 1 BALB C       2B                   2.7  rep2      female     0.00192
 2 CD-1         3E                   2.85 rep2      female     0.00181
 3 CD-1         3E                   2.85 rep2      female     0.00184
 4 CD-1         3E                   2.9  rep2      female     0.00187
 5 CD-1         2B                   2.9  rep2      female     0.00178
 6 CD-1         1A                   2.9  rep3      female     0.00188
 7 BALB C       2B                   2.9  rep1      female     0.00187
 8 CD-1         3E                   2.92 rep3      female     0.00193
 9 CD-1         2B                   2.98 rep1      <NA>       0.00179
10 CD-1         2B                   3    rep1      female     0.00185
# ℹ 334 more rows
# ℹ 3 more variables: tail_length_mm <dbl>, initial_weight_g <dbl>,
#   id_num <dbl>

If we compare this to when we just printed our data above, we can see that the rows are now sorted so that the mice that lost the least weight are at the top.

Sometimes you might want to sort in descending order instead (largest values first). You can do this by putting the desc() function around your column name, inside arrange():

mousezempic_dosage_data %>%
  # put desc() around the column name to sort in descending order
  arrange(desc(weight_lost_g))

# A tibble: 344 × 9
   mouse_strain cage_number weight_lost_g replicate sex   drug_dose_g
   <chr>        <chr>               <dbl> <chr>     <chr>       <dbl>
 1 Black 6      3E                   6.3  rep1      male      0.00221
 2 Black 6      3E                   6.05 rep1      male      0.0023 
 3 Black 6      3E                   6    rep2      male      0.0022 
 4 Black 6      3E                   6    rep3      male      0.00222
 5 Black 6      3E                   5.95 rep2      male      0.00223
 6 Black 6      3E                   5.95 rep3      male      0.00229
 7 Black 6      3E                   5.85 rep1      male      0.00213
 8 Black 6      3E                   5.85 rep1      male      0.00217
 9 Black 6      3E                   5.85 rep3      male      0.0023 
10 Black 6      3E                   5.8  rep2      male      0.00229
# ℹ 334 more rows
# ℹ 3 more variables: tail_length_mm <dbl>, initial_weight_g <dbl>,
#   id_num <dbl>
Now we can see the mice that lost the most weight are at the top.

Comments and pipes

Notice how in the previous example we have written a comment in the middle of the pipe chain. This is a good practice to help you remember what each step is doing, especially when you have a long chain of functions, and won’t cause any errors as long as you make sure that the comment is on its own line.

You can also write comments at the end of the line, just make sure it’s after the pipe operator %>%.

For example, these comments are allowed:

mousezempic_dosage_data %>% # a comment here is fine
  # a comment here is fine
  arrange(desc(weight_lost_g))

# A tibble: 344 × 9
   mouse_strain cage_number weight_lost_g replicate sex   drug_dose_g
   <chr>        <chr>               <dbl> <chr>     <chr>       <dbl>
 1 Black 6      3E                   6.3  rep1      male      0.00221
 2 Black 6      3E                   6.05 rep1      male      0.0023 
 3 Black 6      3E                   6    rep2      male      0.0022 
 4 Black 6      3E                   6    rep3      male      0.00222
 5 Black 6      3E                   5.95 rep2      male      0.00223
 6 Black 6      3E                   5.95 rep3      male      0.00229
 7 Black 6      3E                   5.85 rep1      male      0.00213
 8 Black 6      3E                   5.85 rep1      male      0.00217
 9 Black 6      3E                   5.85 rep3      male      0.0023 
10 Black 6      3E                   5.8  rep2      male      0.00229
# ℹ 334 more rows
# ℹ 3 more variables: tail_length_mm <dbl>, initial_weight_g <dbl>,
#   id_num <dbl>

But this will cause an error, because the # is before the pipe, so R treats it as part of the comment (notice how the %>% has changed colour?) and doesn’t know how the two lines relate to each other. It tries to run them separately, which for the first line is ok (it will just print mousezempic_dosage_data):

mousezempic_dosage_data # this comment will cause an error %>%

# A tibble: 344 × 9
   mouse_strain cage_number weight_lost_g replicate sex    drug_dose_g
   <chr>        <chr>               <dbl> <chr>     <chr>        <dbl>
 1 CD-1         1A                   3.75 rep1      male       0.00181
 2 CD-1         1A                   3.8  rep1      female     0.00186
 3 CD-1         1A                   3.25 rep1      female     0.00195
 4 CD-1         1A                  NA    rep1      <NA>      NA      
 5 CD-1         1A                   3.45 rep1      female     0.00193
 6 CD-1         1A                   3.65 rep1      male       0.0019 
 7 CD-1         1A                   3.62 rep1      female     0.00181
 8 CD-1         1A                   4.68 rep1      male       0.00195
 9 CD-1         1A                   3.48 rep1      <NA>       0.00193
10 CD-1         1A                   4.25 rep1      <NA>       0.0019 
# ℹ 334 more rows
# ℹ 3 more variables: tail_length_mm <dbl>, initial_weight_g <dbl>,
#   id_num <dbl>

  arrange(desc(weight_lost_g))

Error in eval(expr, envir, enclos): object 'weight_lost_g' not found

But for the second line, there is an error that R doesn’t know what the weight_lost_g object is. That’s because it’s a column in the mousezempic_dosage_data data frame, so R only knows what it is in the context of the pipe chain containing that data frame.

You can also sort by multiple columns by passing multiple column names to arrange(). For example, to sort by the strain first and then by the amount of weight lost:

# sort by strain first, then by weight lost
mousezempic_dosage_data %>%
  arrange(mouse_strain, weight_lost_g)

# A tibble: 344 × 9
   mouse_strain cage_number weight_lost_g replicate sex    drug_dose_g
   <chr>        <chr>               <dbl> <chr>     <chr>        <dbl>
 1 BALB C       2B                   2.7  rep2      female     0.00192
 2 BALB C       2B                   2.9  rep1      female     0.00187
 3 BALB C       2B                   3.2  rep2      female     0.00187
 4 BALB C       2B                   3.25 rep1      female     0.00178
 5 BALB C       2B                   3.25 rep3      male       0.00187
 6 BALB C       2B                   3.25 rep3      female     0.00191
 7 BALB C       2B                   3.3  rep1      male       0.00197
 8 BALB C       2B                   3.3  rep1      female     0.00195
 9 BALB C       2B                   3.32 rep3      female     0.00199
10 BALB C       2B                   3.35 rep2      female     0.00187
# ℹ 334 more rows
# ℹ 3 more variables: tail_length_mm <dbl>, initial_weight_g <dbl>,
#   id_num <dbl>
…
# A tibble: 2 × 9
  mouse_strain cage_number weight_lost_g replicate sex   drug_dose_g
  <chr>        <chr>               <dbl> <chr>     <chr>       <dbl>
1 Black 6      3E                   6.3  rep1      male      0.00221
2 Black 6      3E                   6.05 rep1      male      0.0023 
# ℹ 3 more variables: tail_length_mm <dbl>, initial_weight_g <dbl>,
#   id_num <dbl>

Or to only include mice from cage 3E:

mousezempic_dosage_data %>%
  # remember that == is used for testing equality
  filter(cage_number == "3E") # don't forget the quotes either!

# A tibble: 168 × 9
   mouse_strain cage_number weight_lost_g replicate sex    drug_dose_g
   <chr>        <chr>               <dbl> <chr>     <chr>        <dbl>
 1 CD-1         3E                   3.4  rep1      female     0.00174
 2 CD-1         3E                   3.6  rep1      male       0.0018 
 3 CD-1         3E                   3.8  rep1      female     0.00189
 4 CD-1         3E                   3.95 rep1      male       0.00185
 5 CD-1         3E                   3.8  rep1      male       0.0018 
 6 CD-1         3E                   3.8  rep1      female     0.00187
 7 CD-1         3E                   3.55 rep1      male       0.00183
 8 CD-1         3E                   3.2  rep1      female     0.00187
 9 CD-1         3E                   3.15 rep1      female     0.00172
10 CD-1         3E                   3.95 rep1      male       0.0018 
# ℹ 158 more rows
# ℹ 3 more variables: tail_length_mm <dbl>, initial_weight_g <dbl>,
#   id_num <dbl>
…
The | operator is used to combine two logical tests with an ‘or’ condition. For example, to filter the data frame to only include mice that have an initial weight less than 35g or a tail length less than 14mm:

mousezempic_dosage_data %>%
  filter(initial_weight_g < 35 | tail_length_mm < 14)

# A tibble: 30 × 9
   mouse_strain cage_number weight_lost_g replicate sex    drug_dose_g
   <chr>        <chr>               <dbl> <chr>     <chr>        <dbl>
 1 CD-1         1A                   3.48 rep1      <NA>       0.00193
 2 CD-1         1A                   4.4  rep1      male       0.00198
 3 CD-1         1A                   3.32 rep1      female     0.00184
 4 CD-1         3E                   2.9  rep2      female     0.00187
 5 CD-1         1A                   3.6  rep2      female     0.0019 
 6 CD-1         1A                   3.2  rep2      female     0.00189
 7 CD-1         2B                   3.4  rep2      female     0.00185
 8 CD-1         2B                   2.9  rep2      female     0.00178
 9 CD-1         2B                   3.05 rep3      female     0.00188
10 Black 6      3E                   4.5  rep1      female     0.00211
# ℹ 20 more rows
# ℹ 3 more variables: tail_length_mm <dbl>, initial_weight_g <dbl>,
#   id_num <dbl>

The %in% operator can be used to filter based on a vector of multiple values (c(x, y)). It’s particularly useful when you have a few character values you want to filter on, as it is shorter to type than | (or).

For example, to filter the data frame to only include mice from cages 3E or 1A, we could use | like this:

mousezempic_dosage_data %>%
  filter(cage_number == "3E" | cage_number == "1A")

# A tibble: 220 × 9
   mouse_strain cage_number weight_lost_g replicate sex    drug_dose_g
   <chr>        <chr>               <dbl> <chr>     <chr>        <dbl>
 1 CD-1         1A                   3.75 rep1      male       0.00181
 2 CD-1         1A                   3.8  rep1      female     0.00186
 3 CD-1         1A                   3.25 rep1      female     0.00195
 4 CD-1         1A                  NA    rep1      <NA>      NA      
 5 CD-1         1A                   3.45 rep1      female     0.00193
 6 CD-1         1A                   3.65 rep1      male       0.0019 
 7 CD-1         1A                   3.62 rep1      female     0.00181
 8 CD-1         1A                   4.68 rep1      male       0.00195
 9 CD-1         1A                   3.48 rep1      <NA>       0.00193
10 CD-1         1A                   4.25 rep1      <NA>       0.0019 
# ℹ 210 more rows
# ℹ 3 more variables: tail_length_mm <dbl>, initial_weight_g <dbl>,
#   id_num <dbl>

Or we could use %in% like this:

mousezempic_dosage_data %>%
  filter(cage_number %in% c("3E", "1A"))

# A tibble: 220 × 9
   mouse_strain cage_number weight_lost_g replicate sex    drug_dose_g
   <chr>        <chr>               <dbl> <chr>     <chr>        <dbl>
 1 CD-1         1A                   3.75 rep1      male       0.00181
 2 CD-1         1A                   3.8  rep1      female     0.00186
 3 CD-1         1A                   3.25 rep1      female     0.00195
 4 CD-1         1A                  NA    rep1      <NA>      NA      
 5 CD-1         1A                   3.45 rep1      female     0.00193
 6 CD-1         1A                   3.65 rep1      male       0.0019 
 7 CD-1         1A                   3.62 rep1      female     0.00181
 8 CD-1         1A                   4.68 rep1      male       0.00195
 9 CD-1         1A                   3.48 rep1      <NA>       0.00193
10 CD-1         1A                   4.25 rep1      <NA>       0.0019 
# ℹ 210 more rows
# ℹ 3 more variables: tail_length_mm <dbl>, initial_weight_g <dbl>,
#   id_num <dbl>
…
[1] 0.002009152

This time, the result is a number, because the missing values have been removed before the calculation.

But not all functions have an na.rm argument. In these cases, you can remove rows with missing values. This can be done for a single column, using the filter() function together with is.na():

# remove rows with missing values in the drug_dose_g column
mousezempic_dosage_data %>%
  # remember the ! means 'not', it negates the result of is.na()
  filter(!is.na(drug_dose_g))

# A tibble: 342 × 9
   mouse_strain cage_number weight_lost_g replicate sex    drug_dose_g
   <chr>        <chr>               <dbl> <chr>     <chr>        <dbl>
 1 CD-1         1A                   3.75 rep1      male       0.00181
 2 CD-1         1A                   3.8  rep1      female     0.00186
 3 CD-1         1A                   3.25 rep1      female     0.00195
 4 CD-1         1A                   3.45 rep1      female     0.00193
 5 CD-1         1A                   3.65 rep1      male       0.0019 
 6 CD-1         1A                   3.62 rep1      female     0.00181
 7 CD-1         1A                   4.68 rep1      male       0.00195
 8 CD-1         1A                   3.48 rep1      <NA>       0.00193
 9 CD-1         1A                   4.25 rep1      <NA>       0.0019 
10 CD-1         1A                   3.3  rep1      <NA>       0.00186
# ℹ 332 more rows
# ℹ 3 more variables: tail_length_mm <dbl>, initial_weight_g <dbl>,
#   id_num <dbl>

Or, you can remove rows with missing values in any column using the na.omit() function:

# remove rows with missing values in any column
mousezempic_dosage_data %>%
  na.omit()

# A tibble: 333 × 9
   mouse_strain cage_number weight_lost_g replicate sex    drug_dose_g
   <chr>        <chr>               <dbl> <chr>     <chr>        <dbl>
 1 CD-1         1A                   3.75 rep1      male       0.00181
 2 CD-1         1A                   3.8  rep1      female     0.00186
 3 CD-1         1A                   3.25 rep1      female     0.00195
 4 CD-1         1A                   3.45 rep1      female     0.00193
 5 CD-1         1A                   3.65 rep1      male       0.0019 
 6 CD-1         1A                   3.62 rep1      female     0.00181
 7 CD-1         1A                   4.68 rep1      male       0.00195
 8 CD-1         1A                   3.2  rep1      female     0.00182
 9 CD-1         1A                   3.8  rep1      male       0.00191
10 CD-1         1A                   4.4  rep1      male       0.00198
# ℹ 323 more rows
# ℹ 3 more variables: tail_length_mm <dbl>, initial_weight_g <dbl>,
#   id_num <dbl>

Sometimes, instead of removing rows with missing values, you might want to replace them with a specific value. This can be done using the replace_na() function from the tidyr package. replace_na() takes a list() which contains each of the column names you want to edit, and the value that should be used.

For example, to replace missing values in the weight_lost_g columns with 0, replace missing values in the sex column with ‘unknown’ and leave the rest of the data frame unchanged:

# need to load the tidyr package first
library(tidyr)

# replace missing values in the drug_dose_g column with 0
mousezempic_dosage_data %>%
  # here we need to provide the column_names = values_to_replace
  # this needs to be contained within a list()
  replace_na(list(weight_lost_g = 0, sex = "unknown"))

# A tibble: 344 × 9
   mouse_strain cage_number weight_lost_g replicate sex     drug_dose_g
   <chr>        <chr>               <dbl> <chr>     <chr>         <dbl>
 1 CD-1         1A                   3.75 rep1      male        0.00181
 2 CD-1         1A                   3.8  rep1      female      0.00186
 3 CD-1         1A                   3.25 rep1      female      0.00195
 4 CD-1         1A                   0    rep1      unknown    NA      
 5 CD-1         1A                   3.45 rep1      female      0.00193
 6 CD-1         1A                   3.65 rep1      male        0.0019 
 7 CD-1         1A                   3.62 rep1      female      0.00181
 8 CD-1         1A                   4.68 rep1      male        0.00195
 9 CD-1         1A                   3.48 rep1      unknown     0.00193
10 CD-1         1A                   4.25 rep1      unknown     0.0019 
# ℹ 334 more rows
# ℹ 3 more variables: tail_length_mm <dbl>, initial_weight_g <dbl>,
#   id_num <dbl>
…
Select allows you to select only certain columns

While filter() is used to subset rows, select() is used to subset columns. You can use select() to keep only the columns you’re interested in, or to drop columns you don’t need.

The select() function takes the names of the columns that you want to keep/remove (no vector notation c() or quotation marks "" necessary). For example, to select only the mouse_strain, initial_weight_g, and weight_lost_g columns from the mousezempic_dosage_data data frame:

mousezempic_dosage_data %>%
  select(mouse_strain, initial_weight_g, weight_lost_g)

# A tibble: 344 × 3
   mouse_strain initial_weight_g weight_lost_g
   <chr>                   <dbl>         <dbl>
 1 CD-1                     39.1          3.75
 2 CD-1                     39.5          3.8 
 3 CD-1                     40.3          3.25
 4 CD-1                     NA           NA   
 5 CD-1                     36.7          3.45
 6 CD-1                     39.3          3.65
 7 CD-1                     38.9          3.62
 8 CD-1                     39.2          4.68
 9 CD-1                     34.1          3.48
10 CD-1                     42            4.25
# ℹ 334 more rows
…
